%YAML 1.1
%TAG !u! tag:unity3d.com,2011:
--- !u!29 &1
OcclusionCullingSettings:
  m_ObjectHideFlags: 0
  serializedVersion: 2
  m_OcclusionBakeSettings:
    smallestOccluder: 5
    smallestHole: 0.25
    backfaceThreshold: 100
  m_SceneGUID: 00000000000000000000000000000000
  m_OcclusionCullingData: {fileID: 0}
--- !u!104 &2
RenderSettings:
  m_ObjectHideFlags: 0
  serializedVersion: 8
  m_Fog: 0
  m_FogColor: {r: 0.5, g: 0.5, b: 0.5, a: 1}
  m_FogMode: 3
  m_FogDensity: 0.01
  m_LinearFogStart: 0
  m_LinearFogEnd: 300
  m_AmbientSkyColor: {r: 0.212, g: 0.227, b: 0.259, a: 1}
  m_AmbientEquatorColor: {r: 0.114, g: 0.125, b: 0.133, a: 1}
  m_AmbientGroundColor: {r: 0.047, g: 0.043, b: 0.035, a: 1}
  m_AmbientIntensity: 1
  m_AmbientMode: 0
  m_SubtractiveShadowColor: {r: 0.42, g: 0.478, b: 0.627, a: 1}
  m_SkyboxMaterial: {fileID: 10304, guid: 0000000000000000f000000000000000, type: 0}
  m_HaloStrength: 0.5
  m_FlareStrength: 1
  m_FlareFadeSpeed: 3
  m_HaloTexture: {fileID: 0}
  m_SpotCookie: {fileID: 10001, guid: 0000000000000000e000000000000000, type: 0}
  m_DefaultReflectionMode: 0
  m_DefaultReflectionResolution: 128
  m_ReflectionBounces: 1
  m_ReflectionIntensity: 1
  m_CustomReflection: {fileID: 0}
  m_Sun: {fileID: 0}
  m_IndirectSpecularColor: {r: 0, g: 0, b: 0, a: 1}
--- !u!157 &3
LightmapSettings:
  m_ObjectHideFlags: 0
  serializedVersion: 11
  m_GIWorkflowMode: 0
  m_GISettings:
    serializedVersion: 2
    m_BounceScale: 1
    m_IndirectOutputScale: 1
    m_AlbedoBoost: 1
    m_TemporalCoherenceThreshold: 1
    m_EnvironmentLightingMode: 0
    m_EnableBakedLightmaps: 1
    m_EnableRealtimeLightmaps: 1
  m_LightmapEditorSettings:
    serializedVersion: 9
    m_Resolution: 2
    m_BakeResolution: 40
    m_TextureWidth: 1024
    m_TextureHeight: 1024
    m_AO: 0
    m_AOMaxDistance: 1
    m_CompAOExponent: 0
    m_CompAOExponentDirect: 0
    m_Padding: 2
    m_LightmapParameters: {fileID: 0}
    m_LightmapsBakeMode: 1
    m_TextureCompression: 1
    m_FinalGather: 0
    m_FinalGatherFiltering: 1
    m_FinalGatherRayCount: 1024
    m_ReflectionCompression: 2
    m_MixedBakeMode: 1
    m_BakeBackend: 0
    m_PVRSampling: 1
    m_PVRDirectSampleCount: 32
    m_PVRSampleCount: 500
    m_PVRBounces: 2
    m_PVRFiltering: 0
    m_PVRFilteringMode: 1
    m_PVRCulling: 1
    m_PVRFilteringGaussRadiusDirect: 1
    m_PVRFilteringGaussRadiusIndirect: 5
    m_PVRFilteringGaussRadiusAO: 2
    m_PVRFilteringAtrousColorSigma: 1
    m_PVRFilteringAtrousNormalSigma: 1
    m_PVRFilteringAtrousPositionSigma: 1
  m_LightingDataAsset: {fileID: 0}
  m_UseShadowmask: 0
--- !u!196 &4
NavMeshSettings:
  serializedVersion: 2
  m_ObjectHideFlags: 0
  m_BuildSettings:
    serializedVersion: 2
    agentTypeID: 0
    agentRadius: 0.5
    agentHeight: 2
    agentSlope: 45
    agentClimb: 0.4
    ledgeDropHeight: 0
    maxJumpAcrossDistance: 0
    minRegionArea: 2
    manualCellSize: 0
    cellSize: 0.16666667
    manualTileSize: 0
    tileSize: 256
    accuratePlacement: 0
  m_NavMeshData: {fileID: 0}
--- !u!1 &361160327
GameObject:
  m_ObjectHideFlags: 0
  m_PrefabParentObject: {fileID: 114418, guid: 9b8fc966f95ea9c4194dc091fc40b478, type: 2}
  m_PrefabInternal: {fileID: 1312666867}
  serializedVersion: 5
  m_Component:
  - component: {fileID: 361160331}
  - component: {fileID: 361160330}
  - component: {fileID: 361160329}
  - component: {fileID: 361160328}
  m_Layer: 0
  m_Name: Tree9_5
  m_TagString: Untagged
  m_Icon: {fileID: 0}
  m_NavMeshLayer: 0
  m_StaticEditorFlags: 0
  m_IsActive: 1
--- !u!23 &361160328
MeshRenderer:
  m_ObjectHideFlags: 0
  m_PrefabParentObject: {fileID: 2346822, guid: 9b8fc966f95ea9c4194dc091fc40b478,
    type: 2}
  m_PrefabInternal: {fileID: 1312666867}
  m_GameObject: {fileID: 361160327}
  m_Enabled: 1
  m_CastShadows: 1
  m_ReceiveShadows: 1
  m_MotionVectors: 1
  m_LightProbeUsage: 1
  m_ReflectionProbeUsage: 1
  m_Materials:
  - {fileID: 2187698, guid: 9b8fc966f95ea9c4194dc091fc40b478, type: 2}
  - {fileID: 2129798, guid: 9b8fc966f95ea9c4194dc091fc40b478, type: 2}
  m_StaticBatchInfo:
    firstSubMesh: 0
    subMeshCount: 0
  m_StaticBatchRoot: {fileID: 0}
  m_ProbeAnchor: {fileID: 0}
  m_LightProbeVolumeOverride: {fileID: 0}
  m_ScaleInLightmap: 1
  m_PreserveUVs: 0
  m_IgnoreNormalsForChartDetection: 0
  m_ImportantGI: 0
  m_SelectedEditorRenderState: 3
  m_MinimumChartSize: 4
  m_AutoUVMaxDistance: 0.5
  m_AutoUVMaxAngle: 89
  m_LightmapParameters: {fileID: 0}
  m_SortingLayerID: 0
  m_SortingLayer: 0
  m_SortingOrder: 0
--- !u!33 &361160329
MeshFilter:
  m_ObjectHideFlags: 0
  m_PrefabParentObject: {fileID: 3335006, guid: 9b8fc966f95ea9c4194dc091fc40b478,
    type: 2}
  m_PrefabInternal: {fileID: 1312666867}
  m_GameObject: {fileID: 361160327}
  m_Mesh: {fileID: 4303498, guid: 9b8fc966f95ea9c4194dc091fc40b478, type: 2}
--- !u!193 &361160330
Tree:
  m_ObjectHideFlags: 0
  m_PrefabParentObject: {fileID: 19339622, guid: 9b8fc966f95ea9c4194dc091fc40b478,
    type: 2}
  m_PrefabInternal: {fileID: 1312666867}
  m_GameObject: {fileID: 361160327}
  m_SpeedTreeWindAsset: {fileID: 0}
  m_TreeData: {fileID: 11451600, guid: 9b8fc966f95ea9c4194dc091fc40b478, type: 2}
--- !u!4 &361160331
Transform:
  m_ObjectHideFlags: 0
  m_PrefabParentObject: {fileID: 481256, guid: 9b8fc966f95ea9c4194dc091fc40b478, type: 2}
  m_PrefabInternal: {fileID: 1312666867}
  m_GameObject: {fileID: 361160327}
  m_LocalRotation: {x: 0, y: 0, z: 0, w: 1}
  m_LocalPosition: {x: -54, y: 0, z: 0}
  m_LocalScale: {x: 1, y: 1, z: 1}
  m_Children: []
  m_Father: {fileID: 0}
  m_RootOrder: 5
  m_LocalEulerAnglesHint: {x: 0, y: 0, z: 0}
--- !u!1001 &610948540
Prefab:
  m_ObjectHideFlags: 0
  serializedVersion: 2
  m_Modification:
    m_TransformParent: {fileID: 0}
    m_Modifications:
    - target: {fileID: 481256, guid: 8b2d47fdc2e25ac4f9721480a68bbefa, type: 2}
      propertyPath: m_LocalPosition.x
      value: -21.4
      objectReference: {fileID: 0}
    - target: {fileID: 481256, guid: 8b2d47fdc2e25ac4f9721480a68bbefa, type: 2}
      propertyPath: m_LocalPosition.y
      value: 0
      objectReference: {fileID: 0}
    - target: {fileID: 481256, guid: 8b2d47fdc2e25ac4f9721480a68bbefa, type: 2}
      propertyPath: m_LocalPosition.z
      value: 0
      objectReference: {fileID: 0}
    - target: {fileID: 481256, guid: 8b2d47fdc2e25ac4f9721480a68bbefa, type: 2}
      propertyPath: m_LocalRotation.x
      value: 0
      objectReference: {fileID: 0}
    - target: {fileID: 481256, guid: 8b2d47fdc2e25ac4f9721480a68bbefa, type: 2}
      propertyPath: m_LocalRotation.y
      value: 0
      objectReference: {fileID: 0}
    - target: {fileID: 481256, guid: 8b2d47fdc2e25ac4f9721480a68bbefa, type: 2}
      propertyPath: m_LocalRotation.z
      value: 0
      objectReference: {fileID: 0}
    - target: {fileID: 481256, guid: 8b2d47fdc2e25ac4f9721480a68bbefa, type: 2}
      propertyPath: m_LocalRotation.w
      value: 1
      objectReference: {fileID: 0}
    - target: {fileID: 481256, guid: 8b2d47fdc2e25ac4f9721480a68bbefa, type: 2}
      propertyPath: m_RootOrder
      value: 3
      objectReference: {fileID: 0}
    m_RemovedComponents: []
  m_ParentPrefab: {fileID: 100100000, guid: 8b2d47fdc2e25ac4f9721480a68bbefa, type: 2}
  m_RootGameObject: {fileID: 1468793687}
  m_IsPrefabParent: 0
--- !u!1 &977270608
GameObject:
  m_ObjectHideFlags: 0
  m_PrefabParentObject: {fileID: 114418, guid: be878d9ea17907f4a8068678a5ce7908, type: 2}
  m_PrefabInternal: {fileID: 1316180894}
  serializedVersion: 5
  m_Component:
  - component: {fileID: 977270612}
  - component: {fileID: 977270611}
  - component: {fileID: 977270610}
  - component: {fileID: 977270609}
  m_Layer: 0
  m_Name: Tree9_2
  m_TagString: Untagged
  m_Icon: {fileID: 0}
  m_NavMeshLayer: 0
  m_StaticEditorFlags: 0
  m_IsActive: 1
--- !u!23 &977270609
MeshRenderer:
  m_ObjectHideFlags: 0
  m_PrefabParentObject: {fileID: 2346822, guid: be878d9ea17907f4a8068678a5ce7908,
    type: 2}
  m_PrefabInternal: {fileID: 1316180894}
  m_GameObject: {fileID: 977270608}
  m_Enabled: 1
  m_CastShadows: 1
  m_ReceiveShadows: 1
  m_MotionVectors: 1
  m_LightProbeUsage: 1
  m_ReflectionProbeUsage: 1
  m_Materials:
  - {fileID: 2187698, guid: be878d9ea17907f4a8068678a5ce7908, type: 2}
  - {fileID: 2129798, guid: be878d9ea17907f4a8068678a5ce7908, type: 2}
  m_StaticBatchInfo:
    firstSubMesh: 0
    subMeshCount: 0
  m_StaticBatchRoot: {fileID: 0}
  m_ProbeAnchor: {fileID: 0}
  m_LightProbeVolumeOverride: {fileID: 0}
  m_ScaleInLightmap: 1
  m_PreserveUVs: 0
  m_IgnoreNormalsForChartDetection: 0
  m_ImportantGI: 0
  m_SelectedEditorRenderState: 3
  m_MinimumChartSize: 4
  m_AutoUVMaxDistance: 0.5
  m_AutoUVMaxAngle: 89
  m_LightmapParameters: {fileID: 0}
  m_SortingLayerID: 0
  m_SortingLayer: 0
  m_SortingOrder: 0
--- !u!33 &977270610
MeshFilter:
  m_ObjectHideFlags: 0
  m_PrefabParentObject: {fileID: 3335006, guid: be878d9ea17907f4a8068678a5ce7908,
    type: 2}
  m_PrefabInternal: {fileID: 1316180894}
  m_GameObject: {fileID: 977270608}
  m_Mesh: {fileID: 4303498, guid: be878d9ea17907f4a8068678a5ce7908, type: 2}
--- !u!193 &977270611
Tree:
  m_ObjectHideFlags: 0
  m_PrefabParentObject: {fileID: 19339622, guid: be878d9ea17907f4a8068678a5ce7908,
    type: 2}
  m_PrefabInternal: {fileID: 1316180894}
  m_GameObject: {fileID: 977270608}
  m_SpeedTreeWindAsset: {fileID: 0}
  m_TreeData: {fileID: 11451600, guid: be878d9ea17907f4a8068678a5ce7908, type: 2}
--- !u!4 &977270612
Transform:
  m_ObjectHideFlags: 0
  m_PrefabParentObject: {fileID: 481256, guid: be878d9ea17907f4a8068678a5ce7908, type: 2}
  m_PrefabInternal: {fileID: 1316180894}
  m_GameObject: {fileID: 977270608}
  m_LocalRotation: {x: 0, y: 0, z: 0, w: 1}
  m_LocalPosition: {x: 0, y: 0, z: 0}
  m_LocalScale: {x: 1, y: 1, z: 1}
  m_Children: []
  m_Father: {fileID: 0}
  m_RootOrder: 2
  m_LocalEulerAnglesHint: {x: 0, y: 0, z: 0}
--- !u!1 &1233077611
GameObject:
  m_ObjectHideFlags: 0
  m_PrefabParentObject: {fileID: 114418, guid: 956bd2acf7aae244dac8fc20cf57858d, type: 2}
  m_PrefabInternal: {fileID: 1804414088}
  serializedVersion: 5
  m_Component:
  - component: {fileID: 1233077615}
  - component: {fileID: 1233077614}
  - component: {fileID: 1233077613}
  - component: {fileID: 1233077612}
  m_Layer: 0
  m_Name: Tree9_4
  m_TagString: Untagged
  m_Icon: {fileID: 0}
  m_NavMeshLayer: 0
  m_StaticEditorFlags: 0
  m_IsActive: 1
--- !u!23 &1233077612
MeshRenderer:
  m_ObjectHideFlags: 0
  m_PrefabParentObject: {fileID: 2346822, guid: 956bd2acf7aae244dac8fc20cf57858d,
    type: 2}
  m_PrefabInternal: {fileID: 1804414088}
  m_GameObject: {fileID: 1233077611}
  m_Enabled: 1
  m_CastShadows: 1
  m_ReceiveShadows: 1
  m_MotionVectors: 1
  m_LightProbeUsage: 1
  m_ReflectionProbeUsage: 1
  m_Materials:
  - {fileID: 2187698, guid: 956bd2acf7aae244dac8fc20cf57858d, type: 2}
  - {fileID: 2129798, guid: 956bd2acf7aae244dac8fc20cf57858d, type: 2}
  m_StaticBatchInfo:
    firstSubMesh: 0
    subMeshCount: 0
  m_StaticBatchRoot: {fileID: 0}
  m_ProbeAnchor: {fileID: 0}
  m_LightProbeVolumeOverride: {fileID: 0}
  m_ScaleInLightmap: 1
  m_PreserveUVs: 0
  m_IgnoreNormalsForChartDetection: 0
  m_ImportantGI: 0
  m_SelectedEditorRenderState: 3
  m_MinimumChartSize: 4
  m_AutoUVMaxDistance: 0.5
  m_AutoUVMaxAngle: 89
  m_LightmapParameters: {fileID: 0}
  m_SortingLayerID: 0
  m_SortingLayer: 0
  m_SortingOrder: 0
--- !u!33 &1233077613
MeshFilter:
  m_ObjectHideFlags: 0
  m_PrefabParentObject: {fileID: 3335006, guid: 956bd2acf7aae244dac8fc20cf57858d,
    type: 2}
  m_PrefabInternal: {fileID: 1804414088}
  m_GameObject: {fileID: 1233077611}
  m_Mesh: {fileID: 4303498, guid: 956bd2acf7aae244dac8fc20cf57858d, type: 2}
--- !u!193 &1233077614
Tree:
  m_ObjectHideFlags: 0
  m_PrefabParentObject: {fileID: 19339622, guid: 956bd2acf7aae244dac8fc20cf57858d,
    type: 2}
  m_PrefabInternal: {fileID: 1804414088}
  m_GameObject: {fileID: 1233077611}
  m_SpeedTreeWindAsset: {fileID: 0}
  m_TreeData: {fileID: 11451600, guid: 956bd2acf7aae244dac8fc20cf57858d, type: 2}
--- !u!4 &1233077615
Transform:
  m_ObjectHideFlags: 0
  m_PrefabParentObject: {fileID: 481256, guid: 956bd2acf7aae244dac8fc20cf57858d, type: 2}
  m_PrefabInternal: {fileID: 1804414088}
  m_GameObject: {fileID: 1233077611}
  m_LocalRotation: {x: 0, y: 0, z: 0, w: 1}
  m_LocalPosition: {x: -39.5, y: 0, z: 0}
  m_LocalScale: {x: 1, y: 1, z: 1}
  m_Children: []
  m_Father: {fileID: 0}
  m_RootOrder: 4
  m_LocalEulerAnglesHint: {x: 0, y: 0, z: 0}
--- !u!1001 &1312666867
Prefab:
  m_ObjectHideFlags: 0
  serializedVersion: 2
  m_Modification:
    m_TransformParent: {fileID: 0}
    m_Modifications:
    - target: {fileID: 481256, guid: 9b8fc966f95ea9c4194dc091fc40b478, type: 2}
      propertyPath: m_LocalPosition.x
      value: -54
      objectReference: {fileID: 0}
    - target: {fileID: 481256, guid: 9b8fc966f95ea9c4194dc091fc40b478, type: 2}
      propertyPath: m_LocalPosition.y
      value: 0
      objectReference: {fileID: 0}
    - target: {fileID: 481256, guid: 9b8fc966f95ea9c4194dc091fc40b478, type: 2}
      propertyPath: m_LocalPosition.z
      value: 0
      objectReference: {fileID: 0}
    - target: {fileID: 481256, guid: 9b8fc966f95ea9c4194dc091fc40b478, type: 2}
      propertyPath: m_LocalRotation.x
      value: 0
      objectReference: {fileID: 0}
    - target: {fileID: 481256, guid: 9b8fc966f95ea9c4194dc091fc40b478, type: 2}
      propertyPath: m_LocalRotation.y
      value: 0
      objectReference: {fileID: 0}
    - target: {fileID: 481256, guid: 9b8fc966f95ea9c4194dc091fc40b478, type: 2}
      propertyPath: m_LocalRotation.z
      value: 0
      objectReference: {fileID: 0}
    - target: {fileID: 481256, guid: 9b8fc966f95ea9c4194dc091fc40b478, type: 2}
      propertyPath: m_LocalRotation.w
      value: 1
      objectReference: {fileID: 0}
    - target: {fileID: 481256, guid: 9b8fc966f95ea9c4194dc091fc40b478, type: 2}
      propertyPath: m_RootOrder
      value: 5
      objectReference: {fileID: 0}
    m_RemovedComponents: []
  m_ParentPrefab: {fileID: 100100000, guid: 9b8fc966f95ea9c4194dc091fc40b478, type: 2}
  m_RootGameObject: {fileID: 361160327}
  m_IsPrefabParent: 0
--- !u!1001 &1316180894
Prefab:
  m_ObjectHideFlags: 0
  serializedVersion: 2
  m_Modification:
    m_TransformParent: {fileID: 0}
    m_Modifications:
    - target: {fileID: 481256, guid: be878d9ea17907f4a8068678a5ce7908, type: 2}
      propertyPath: m_LocalPosition.x
      value: 0
      objectReference: {fileID: 0}
    - target: {fileID: 481256, guid: be878d9ea17907f4a8068678a5ce7908, type: 2}
      propertyPath: m_LocalPosition.y
      value: 0
      objectReference: {fileID: 0}
    - target: {fileID: 481256, guid: be878d9ea17907f4a8068678a5ce7908, type: 2}
      propertyPath: m_LocalPosition.z
      value: 0
      objectReference: {fileID: 0}
    - target: {fileID: 481256, guid: be878d9ea17907f4a8068678a5ce7908, type: 2}
      propertyPath: m_LocalRotation.x
      value: 0
      objectReference: {fileID: 0}
    - target: {fileID: 481256, guid: be878d9ea17907f4a8068678a5ce7908, type: 2}
      propertyPath: m_LocalRotation.y
      value: 0
      objectReference: {fileID: 0}
    - target: {fileID: 481256, guid: be878d9ea17907f4a8068678a5ce7908, type: 2}
      propertyPath: m_LocalRotation.z
      value: 0
      objectReference: {fileID: 0}
    - target: {fileID: 481256, guid: be878d9ea17907f4a8068678a5ce7908, type: 2}
      propertyPath: m_LocalRotation.w
      value: 1
      objectReference: {fileID: 0}
    - target: {fileID: 481256, guid: be878d9ea17907f4a8068678a5ce7908, type: 2}
      propertyPath: m_RootOrder
      value: 2
      objectReference: {fileID: 0}
    m_RemovedComponents: []
  m_ParentPrefab: {fileID: 100100000, guid: be878d9ea17907f4a8068678a5ce7908, type: 2}
  m_RootGameObject: {fileID: 977270608}
  m_IsPrefabParent: 0
--- !u!1 &1468793687
GameObject:
  m_ObjectHideFlags: 0
  m_PrefabParentObject: {fileID: 114418, guid: 8b2d47fdc2e25ac4f9721480a68bbefa, type: 2}
  m_PrefabInternal: {fileID: 610948540}
  serializedVersion: 5
  m_Component:
  - component: {fileID: 1468793691}
  - component: {fileID: 1468793690}
  - component: {fileID: 1468793689}
  - component: {fileID: 1468793688}
  m_Layer: 0
  m_Name: Tree9_3
  m_TagString: Untagged
  m_Icon: {fileID: 0}
  m_NavMeshLayer: 0
  m_StaticEditorFlags: 0
  m_IsActive: 1
--- !u!23 &1468793688
MeshRenderer:
  m_ObjectHideFlags: 0
  m_PrefabParentObject: {fileID: 2346822, guid: 8b2d47fdc2e25ac4f9721480a68bbefa,
    type: 2}
  m_PrefabInternal: {fileID: 610948540}
  m_GameObject: {fileID: 1468793687}
  m_Enabled: 1
  m_CastShadows: 1
  m_ReceiveShadows: 1
  m_MotionVectors: 1
  m_LightProbeUsage: 1
  m_ReflectionProbeUsage: 1
  m_Materials:
  - {fileID: 2187698, guid: 8b2d47fdc2e25ac4f9721480a68bbefa, type: 2}
  - {fileID: 2129798, guid: 8b2d47fdc2e25ac4f9721480a68bbefa, type: 2}
  m_StaticBatchInfo:
    firstSubMesh: 0
    subMeshCount: 0
  m_StaticBatchRoot: {fileID: 0}
  m_ProbeAnchor: {fileID: 0}
  m_LightProbeVolumeOverride: {fileID: 0}
  m_ScaleInLightmap: 1
  m_PreserveUVs: 0
  m_IgnoreNormalsForChartDetection: 0
  m_ImportantGI: 0
  m_SelectedEditorRenderState: 3
  m_MinimumChartSize: 4
  m_AutoUVMaxDistance: 0.5
  m_AutoUVMaxAngle: 89
  m_LightmapParameters: {fileID: 0}
  m_SortingLayerID: 0
  m_SortingLayer: 0
  m_SortingOrder: 0
--- !u!33 &1468793689
MeshFilter:
  m_ObjectHideFlags: 0
  m_PrefabParentObject: {fileID: 3335006, guid: 8b2d47fdc2e25ac4f9721480a68bbefa,
    type: 2}
  m_PrefabInternal: {fileID: 610948540}
  m_GameObject: {fileID: 1468793687}
  m_Mesh: {fileID: 4303498, guid: 8b2d47fdc2e25ac4f9721480a68bbefa, type: 2}
--- !u!193 &1468793690
Tree:
  m_ObjectHideFlags: 0
  m_PrefabParentObject: {fileID: 19339622, guid: 8b2d47fdc2e25ac4f9721480a68bbefa,
    type: 2}
  m_PrefabInternal: {fileID: 610948540}
  m_GameObject: {fileID: 1468793687}
  m_SpeedTreeWindAsset: {fileID: 0}
  m_TreeData: {fileID: 11451600, guid: 8b2d47fdc2e25ac4f9721480a68bbefa, type: 2}
--- !u!4 &1468793691
Transform:
  m_ObjectHideFlags: 0
  m_PrefabParentObject: {fileID: 481256, guid: 8b2d47fdc2e25ac4f9721480a68bbefa, type: 2}
  m_PrefabInternal: {fileID: 610948540}
  m_GameObject: {fileID: 1468793687}
  m_LocalRotation: {x: 0, y: 0, z: 0, w: 1}
  m_LocalPosition: {x: -21.4, y: 0, z: 0}
  m_LocalScale: {x: 1, y: 1, z: 1}
  m_Children: []
  m_Father: {fileID: 0}
  m_RootOrder: 3
  m_LocalEulerAnglesHint: {x: 0, y: 0, z: 0}
--- !u!1001 &1804414088
Prefab:
  m_ObjectHideFlags: 0
  serializedVersion: 2
  m_Modification:
    m_TransformParent: {fileID: 0}
    m_Modifications:
    - target: {fileID: 481256, guid: 956bd2acf7aae244dac8fc20cf57858d, type: 2}
      propertyPath: m_LocalPosition.x
      value: -39.5
      objectReference: {fileID: 0}
    - target: {fileID: 481256, guid: 956bd2acf7aae244dac8fc20cf57858d, type: 2}
      propertyPath: m_LocalPosition.y
      value: 0
      objectReference: {fileID: 0}
    - target: {fileID: 481256, guid: 956bd2acf7aae244dac8fc20cf57858d, type: 2}
      propertyPath: m_LocalPosition.z
      value: 0
      objectReference: {fileID: 0}
    - target: {fileID: 481256, guid: 956bd2acf7aae244dac8fc20cf57858d, type: 2}
      propertyPath: m_LocalRotation.x
      value: 0
      objectReference: {fileID: 0}
    - target: {fileID: 481256, guid: 956bd2acf7aae244dac8fc20cf57858d, type: 2}
      propertyPath: m_LocalRotation.y
      value: 0
      objectReference: {fileID: 0}
    - target: {fileID: 481256, guid: 956bd2acf7aae244dac8fc20cf57858d, type: 2}
      propertyPath: m_LocalRotation.z
      value: 0
      objectReference: {fileID: 0}
    - target: {fileID: 481256, guid: 956bd2acf7aae244dac8fc20cf57858d, type: 2}
      propertyPath: m_LocalRotation.w
      value: 1
      objectReference: {fileID: 0}
    - target: {fileID: 481256, guid: 956bd2acf7aae244dac8fc20cf57858d, type: 2}
      propertyPath: m_RootOrder
      value: 4
      objectReference: {fileID: 0}
    m_RemovedComponents: []
  m_ParentPrefab: {fileID: 100100000, guid: 956bd2acf7aae244dac8fc20cf57858d, type: 2}
  m_RootGameObject: {fileID: 1233077611}
  m_IsPrefabParent: 0
--- !u!1 &1833630863
GameObject:
  m_ObjectHideFlags: 0
  m_PrefabParentObject: {fileID: 0}
  m_PrefabInternal: {fileID: 0}
  serializedVersion: 5
  m_Component:
  - component: {fileID: 1833630865}
  - component: {fileID: 1833630864}
  m_Layer: 0
  m_Name: Directional Light
  m_TagString: Untagged
  m_Icon: {fileID: 0}
  m_NavMeshLayer: 0
  m_StaticEditorFlags: 0
  m_IsActive: 1
--- !u!108 &1833630864
Light:
  m_ObjectHideFlags: 0
  m_PrefabParentObject: {fileID: 0}
  m_PrefabInternal: {fileID: 0}
  m_GameObject: {fileID: 1833630863}
  m_Enabled: 1
  serializedVersion: 8
  m_Type: 1
  m_Color: {r: 1, g: 0.95686275, b: 0.8392157, a: 1}
  m_Intensity: 1
  m_Range: 10
  m_SpotAngle: 30
  m_CookieSize: 10
  m_Shadows:
    m_Type: 2
    m_Resolution: -1
    m_CustomResolution: -1
    m_Strength: 1
    m_Bias: 0.05
    m_NormalBias: 0.4
    m_NearPlane: 0.2
  m_Cookie: {fileID: 0}
  m_DrawHalo: 0
  m_Flare: {fileID: 0}
  m_RenderMode: 0
  m_CullingMask:
    serializedVersion: 2
    m_Bits: 4294967295
  m_Lightmapping: 4
  m_AreaSize: {x: 1, y: 1}
  m_BounceIntensity: 1
  m_FalloffTable:
    m_Table[0]: 0
    m_Table[1]: 0
    m_Table[2]: 0
    m_Table[3]: 0
    m_Table[4]: 0
    m_Table[5]: 0
    m_Table[6]: 0
    m_Table[7]: 0
    m_Table[8]: 0
    m_Table[9]: 0
    m_Table[10]: 0
    m_Table[11]: 0
    m_Table[12]: 0
  m_ColorTemperature: 6570
  m_UseColorTemperature: 0
  m_ShadowRadius: 0
  m_ShadowAngle: 0
--- !u!4 &1833630865
Transform:
  m_ObjectHideFlags: 0
  m_PrefabParentObject: {fileID: 0}
  m_PrefabInternal: {fileID: 0}
  m_GameObject: {fileID: 1833630863}
  m_LocalRotation: {x: 0.40821794, y: -0.23456973, z: 0.109381676, w: 0.87542605}
  m_LocalPosition: {x: 0, y: 3, z: 0}
  m_LocalScale: {x: 1, y: 1, z: 1}
  m_Children: []
  m_Father: {fileID: 0}
  m_RootOrder: 1
  m_LocalEulerAnglesHint: {x: 0, y: 0, z: 0}
--- !u!1 &1872852162
GameObject:
  m_ObjectHideFlags: 0
  m_PrefabParentObject: {fileID: 0}
  m_PrefabInternal: {fileID: 0}
  serializedVersion: 5
  m_Component:
  - component: {fileID: 1872852167}
  - component: {fileID: 1872852166}
  - component: {fileID: 1872852165}
  - component: {fileID: 1872852164}
  - component: {fileID: 1872852163}
  m_Layer: 0
  m_Name: Main Camera
  m_TagString: MainCamera
  m_Icon: {fileID: 0}
  m_NavMeshLayer: 0
  m_StaticEditorFlags: 0
  m_IsActive: 1
--- !u!81 &1872852163
AudioListener:
  m_ObjectHideFlags: 0
  m_PrefabParentObject: {fileID: 0}
  m_PrefabInternal: {fileID: 0}
  m_GameObject: {fileID: 1872852162}
  m_Enabled: 1
--- !u!124 &1872852164
Behaviour:
  m_ObjectHideFlags: 0
  m_PrefabParentObject: {fileID: 0}
  m_PrefabInternal: {fileID: 0}
  m_GameObject: {fileID: 1872852162}
  m_Enabled: 1
--- !u!92 &1872852165
Behaviour:
  m_ObjectHideFlags: 0
  m_PrefabParentObject: {fileID: 0}
  m_PrefabInternal: {fileID: 0}
  m_GameObject: {fileID: 1872852162}
  m_Enabled: 1
--- !u!20 &1872852166
Camera:
  m_ObjectHideFlags: 0
  m_PrefabParentObject: {fileID: 0}
  m_PrefabInternal: {fileID: 0}
  m_GameObject: {fileID: 1872852162}
  m_Enabled: 1
  serializedVersion: 2
  m_ClearFlags: 1
  m_BackGroundColor: {r: 0.19215687, g: 0.3019608, b: 0.4745098, a: 0.019607844}
  m_NormalizedViewPortRect:
    serializedVersion: 2
    x: 0
    y: 0
    width: 1
    height: 1
  near clip plane: 0.3
  far clip plane: 1000
  field of view: 60
  orthographic: 0
  orthographic size: 5
  m_Depth: -1
  m_CullingMask:
    serializedVersion: 2
    m_Bits: 4294967295
  m_RenderingPath: -1
  m_TargetTexture: {fileID: 0}
  m_TargetDisplay: 0
  m_TargetEye: 3
  m_HDR: 0
  m_AllowMSAA: 1
  m_ForceIntoRT: 0
  m_OcclusionCulling: 1
  m_StereoConvergence: 10
  m_StereoSeparation: 0.022
  m_StereoMirrorMode: 0
--- !u!4 &1872852167
Transform:
  m_ObjectHideFlags: 0
  m_PrefabParentObject: {fileID: 0}
  m_PrefabInternal: {fileID: 0}
  m_GameObject: {fileID: 1872852162}
  m_LocalRotation: {x: 0, y: 0, z: 0, w: 1}
  m_LocalPosition: {x: 0, y: 1, z: -10}
  m_LocalScale: {x: 1, y: 1, z: 1}
  m_Children: []
  m_Father: {fileID: 0}
  m_RootOrder: 0
  m_LocalEulerAnglesHint: {x: 0, y: 0, z: 0}
